{
  "firestore": {
    "rules": "firestore.rules",
    "indexes": "firestore.indexes.json"
  },
  "hosting": {
    "public": "./dist",
    "rewrites": [
      {
        "source": "**",
        "destination": "/index.html"
      }
    ]
  }
 
}
